%YAML 1.1
%TAG !u! tag:unity3d.com,2011:
--- !u!1001 &5979447380318394358
PrefabInstance:
  m_ObjectHideFlags: 0
  serializedVersion: 2
  m_Modification:
    serializedVersion: 3
    m_TransformParent: {fileID: 0}
    m_Modifications:
    - target: {fileID: -8679921383154817045, guid: 0ca393d781c2b8643a95089640a4b5d7,
        type: 3}
      propertyPath: m_LocalPosition.x
      value: -7.4673615
      objectReference: {fileID: 0}
    - target: {fileID: -8679921383154817045, guid: 0ca393d781c2b8643a95089640a4b5d7,
        type: 3}
      propertyPath: m_LocalPosition.y
      value: -104.149994
      objectReference: {fileID: 0}
    - target: {fileID: -8679921383154817045, guid: 0ca393d781c2b8643a95089640a4b5d7,
        type: 3}
      propertyPath: m_LocalPosition.z
      value: -32.316326
      objectReference: {fileID: 0}
    - target: {fileID: -8679921383154817045, guid: 0ca393d781c2b8643a95089640a4b5d7,
        type: 3}
      propertyPath: m_LocalRotation.w
      value: 1
      objectReference: {fileID: 0}
    - target: {fileID: -8679921383154817045, guid: 0ca393d781c2b8643a95089640a4b5d7,
        type: 3}
      propertyPath: m_LocalRotation.x
      value: -0
      objectReference: {fileID: 0}
    - target: {fileID: -8679921383154817045, guid: 0ca393d781c2b8643a95089640a4b5d7,
        type: 3}
      propertyPath: m_LocalRotation.y
      value: -0
      objectReference: {fileID: 0}
    - target: {fileID: -8679921383154817045, guid: 0ca393d781c2b8643a95089640a4b5d7,
        type: 3}
      propertyPath: m_LocalRotation.z
      value: -0
      objectReference: {fileID: 0}
    - target: {fileID: -8679921383154817045, guid: 0ca393d781c2b8643a95089640a4b5d7,
        type: 3}
      propertyPath: m_LocalEulerAnglesHint.x
      value: 0
      objectReference: {fileID: 0}
    - target: {fileID: -8679921383154817045, guid: 0ca393d781c2b8643a95089640a4b5d7,
        type: 3}
      propertyPath: m_LocalEulerAnglesHint.y
      value: 0
      objectReference: {fileID: 0}
    - target: {fileID: -8679921383154817045, guid: 0ca393d781c2b8643a95089640a4b5d7,
        type: 3}
      propertyPath: m_LocalEulerAnglesHint.z
      value: 0
      objectReference: {fileID: 0}
    - target: {fileID: -6511219549512425945, guid: 0ca393d781c2b8643a95089640a4b5d7,
        type: 3}
      propertyPath: 'm_Materials.Array.data[0]'
      value: 
      objectReference: {fileID: 2100000, guid: b75e7ca2df096be40a3df65e66046c7c, type: 2}
    - target: {fileID: -1127579178018090730, guid: 0ca393d781c2b8643a95089640a4b5d7,
        type: 3}
      propertyPath: m_LocalPosition.y
      value: -0.14
      objectReference: {fileID: 0}
    - target: {fileID: 919132149155446097, guid: 0ca393d781c2b8643a95089640a4b5d7,
        type: 3}
      propertyPath: m_Name
      value: Shark
      objectReference: {fileID: 0}
    m_RemovedComponents: []
    m_RemovedGameObjects: []
    m_AddedGameObjects: []
    m_AddedComponents:
    - targetCorrespondingSourceObject: {fileID: 919132149155446097, guid: 0ca393d781c2b8643a95089640a4b5d7,
        type: 3}
      insertIndex: -1
      addedObject: {fileID: 7677521573846367778}
    - targetCorrespondingSourceObject: {fileID: 919132149155446097, guid: 0ca393d781c2b8643a95089640a4b5d7,
        type: 3}
      insertIndex: -1
      addedObject: {fileID: 5721320030115428303}
    - targetCorrespondingSourceObject: {fileID: 919132149155446097, guid: 0ca393d781c2b8643a95089640a4b5d7,
        type: 3}
      insertIndex: -1
      addedObject: {fileID: 1715370361673472105}
  m_SourcePrefab: {fileID: 100100000, guid: 0ca393d781c2b8643a95089640a4b5d7, type: 3}
--- !u!1 &6789786012853316263 stripped
GameObject:
  m_CorrespondingSourceObject: {fileID: 919132149155446097, guid: 0ca393d781c2b8643a95089640a4b5d7,
    type: 3}
  m_PrefabInstance: {fileID: 5979447380318394358}
  m_PrefabAsset: {fileID: 0}
--- !u!95 &7677521573846367778
Animator:
  serializedVersion: 7
  m_ObjectHideFlags: 0
  m_CorrespondingSourceObject: {fileID: 0}
  m_PrefabInstance: {fileID: 0}
  m_PrefabAsset: {fileID: 0}
  m_GameObject: {fileID: 6789786012853316263}
  m_Enabled: 1
  m_Avatar: {fileID: 0}
  m_Controller: {fileID: 9100000, guid: f5efdaaaa639b9a42843907fe1eb4451, type: 2}
  m_CullingMode: 0
  m_UpdateMode: 0
  m_ApplyRootMotion: 0
  m_LinearVelocityBlending: 0
  m_StabilizeFeet: 0
  m_AnimatePhysics: 0
  m_WarningMessage: 
  m_HasTransformHierarchy: 1
  m_AllowConstantClipSamplingOptimization: 1
  m_KeepAnimatorStateOnDisable: 0
  m_WriteDefaultValuesOnDisable: 0
--- !u!114 &5721320030115428303
MonoBehaviour:
  m_ObjectHideFlags: 0
  m_CorrespondingSourceObject: {fileID: 0}
  m_PrefabInstance: {fileID: 0}
  m_PrefabAsset: {fileID: 0}
  m_GameObject: {fileID: 6789786012853316263}
  m_Enabled: 1
  m_EditorHideFlags: 0
  m_Script: {fileID: 11500000, guid: 034afeb63d8b4c844bb12f72e92e653a, type: 3}
  m_Name: 
  m_EditorClassIdentifier: 
  speed: 10
  rotationSpeed: 100
  speedChange: 3
  speedMultiplier: 3
  targetDistance: 60
  _currMoveSpeed: 0
  _state: 0
--- !u!114 &1715370361673472105
MonoBehaviour:
  m_ObjectHideFlags: 0
  m_CorrespondingSourceObject: {fileID: 0}
  m_PrefabInstance: {fileID: 0}
  m_PrefabAsset: {fileID: 0}
  m_GameObject: {fileID: 6789786012853316263}
  m_Enabled: 1
  m_EditorHideFlags: 0
  m_Script: {fileID: 11500000, guid: 4108fe4cee8532b4daac4e7bfe40e30a, type: 3}
  m_Name: 
  m_EditorClassIdentifier: 
  componentType: 1
  obststacleRdius: 25
