%YAML 1.1
%TAG !u! tag:unity3d.com,2011:
--- !u!114 &-5927129262951190187
MonoBehaviour:
  m_ObjectHideFlags: 3
  m_CorrespondingSourceObject: {fileID: 0}
  m_PrefabInstance: {fileID: 0}
  m_PrefabAsset: {fileID: 0}
  m_GameObject: {fileID: 0}
  m_Enabled: 1
  m_EditorHideFlags: 0
  m_Script: {fileID: 11500000, guid: 9392aacf3349be549bb1fd9eece49154, type: 3}
  m_Name: ButoVolumetricFog
  m_EditorClassIdentifier: 
  active: 1
  mode:
    m_OverrideState: 1
    m_Value: 1
  qualityLevel:
    m_OverrideState: 1
    m_Value: 4
  depthInteractionMode:
    m_OverrideState: 0
    m_Value: 1
  rayLengthMode:
    m_OverrideState: 0
    m_Value: 0
  sampleCount:
    m_OverrideState: 1
    m_Value: 64
  animateSamplePosition:
    m_OverrideState: 0
    m_Value: 0
  selfShadowingEnabled:
    m_OverrideState: 1
    m_Value: 0
  maximumSelfShadowingOctaves:
    m_OverrideState: 0
    m_Value: 1
  horizonShadowingEnabled:
    m_OverrideState: 1
    m_Value: 0
  maxDistanceVolumetric:
    m_OverrideState: 1
    m_Value: 1500
  analyticFogEnabled:
    m_OverrideState: 0
    m_Value: 0
  maxDistanceAnalytic:
    m_OverrideState: 0
    m_Value: 1000
  distantFogDensity:
    m_OverrideState: 0
    m_Value: 1
  distantFogStartDistance:
    m_OverrideState: 0
    m_Value: 0
  temporalAntiAliasingEnabled:
    m_OverrideState: 1
    m_Value: 1
  temporalAntiAliasingIntegrationRate:
    m_OverrideState: 1
    m_Value: 0.01
  depthSofteningDistance:
    m_OverrideState: 0
    m_Value: 1
  fogDensity:
    m_OverrideState: 0
    m_Value: 10
  anisotropy:
    m_OverrideState: 0
    m_Value: 0.2
  lightIntensity:
    m_OverrideState: 0
    m_Value: 1
  shadowIntensity:
    m_OverrideState: 0
    m_Value: 1
  baseHeight:
    m_OverrideState: 0
    m_Value: 0
  attenuationBoundarySize:
    m_OverrideState: 0
    m_Value: 10
  distantBaseHeight:
    m_OverrideState: 0
    m_Value: 0
  distantAttenuationBoundarySize:
    m_OverrideState: 0
    m_Value: 100
  litColor:
    m_OverrideState: 0
    m_Value: {r: 1, g: 1, b: 1, a: 1}
  shadowedColor:
    m_OverrideState: 0
    m_Value: {r: 1, g: 1, b: 1, a: 1}
  emitColor:
    m_OverrideState: 0
    m_Value: {r: 1, g: 1, b: 1, a: 1}
  colorRamp:
    m_OverrideState: 0
    m_Value: {fileID: 0}
  colorInfluence:
    m_OverrideState: 0
    m_Value: 0
  directionalForward:
    m_OverrideState: 0
    m_Value: {r: 1, g: 1, b: 1, a: 1}
  directionalBack:
    m_OverrideState: 0
    m_Value: {r: 1, g: 1, b: 1, a: 1}
  directionalRatio:
    m_OverrideState: 0
    m_Value: 1
  noiseTexture:
    m_OverrideState: 0
    m_Value: {fileID: 0}
  octaves:
    m_OverrideState: 0
    m_Value: 1
  lacunarity:
    m_OverrideState: 0
    m_Value: 2
  gain:
    m_OverrideState: 0
    m_Value: 0.3
  noiseTiling:
    m_OverrideState: 0
    m_Value: 30
  noiseWindSpeed:
    m_OverrideState: 0
    m_Value: {x: 0, y: -1, z: 0}
  noiseMap:
    m_OverrideState: 0
    m_Value: {x: 0, y: 1}
  volumeNoise:
    m_OverrideState: 1
    m_Value:
      frequency: 8
      octaves: 4
      lacunarity: 2
      gain: 0.35
      seed: 0
      noiseType: 2
      noiseQuality: 1
      invert: 0
      userTexture: {fileID: 0}
--- !u!114 &11400000
MonoBehaviour:
  m_ObjectHideFlags: 0
  m_CorrespondingSourceObject: {fileID: 0}
  m_PrefabInstance: {fileID: 0}
  m_PrefabAsset: {fileID: 0}
  m_GameObject: {fileID: 0}
  m_Enabled: 1
  m_EditorHideFlags: 0
  m_Script: {fileID: 11500000, guid: d7fd9488000d3734a9e00ee676215985, type: 3}
  m_Name: Global Volume Profile
  m_EditorClassIdentifier: 
  components:
  - {fileID: 3211121876320714850}
  - {fileID: -5927129262951190187}
--- !u!114 &3211121876320714850
MonoBehaviour:
  m_ObjectHideFlags: 3
  m_CorrespondingSourceObject: {fileID: 0}
  m_PrefabInstance: {fileID: 0}
  m_PrefabAsset: {fileID: 0}
  m_GameObject: {fileID: 0}
  m_Enabled: 1
  m_EditorHideFlags: 0
  m_Script: {fileID: 11500000, guid: 97c23e3b12dc18c42a140437e53d3951, type: 3}
  m_Name: Tonemapping
  m_EditorClassIdentifier: 
  active: 1
  mode:
    m_OverrideState: 1
    m_Value: 2
  neutralHDRRangeReductionMode:
    m_OverrideState: 0
    m_Value: 2
  acesPreset:
    m_OverrideState: 0
    m_Value: 3
  hueShiftAmount:
    m_OverrideState: 0
    m_Value: 0
  detectPaperWhite:
    m_OverrideState: 0
    m_Value: 0
  paperWhite:
    m_OverrideState: 0
    m_Value: 300
  detectBrightnessLimits:
    m_OverrideState: 0
    m_Value: 1
  minNits:
    m_OverrideState: 0
    m_Value: 0.005
  maxNits:
    m_OverrideState: 0
    m_Value: 1000
