%YAML 1.1
%TAG !u! tag:unity3d.com,2011:
--- !u!114 &11400000
MonoBehaviour:
  m_ObjectHideFlags: 0
  m_CorrespondingSourceObject: {fileID: 0}
  m_PrefabInstance: {fileID: 0}
  m_PrefabAsset: {fileID: 0}
  m_GameObject: {fileID: 0}
  m_Enabled: 1
  m_EditorHideFlags: 0
  m_Script: {fileID: 11500000, guid: e651dbb3fbac04af2b8f5abf007ddc23, type: 3}
  m_Name: DefaultNetworkPrefabs
  m_EditorClassIdentifier: 
  IsDefault: 1
  List:
  - Override: 0
    Prefab: {fileID: 2147928731507243063, guid: b68a6e0b4d8cacd499e39e69778711e0,
      type: 3}
    SourcePrefabToOverride: {fileID: 0}
    SourceHashToOverride: 0
    OverridingTargetPrefab: {fileID: 0}
  - Override: 0
    Prefab: {fileID: 2126432406398316007, guid: f31528ed67a7ab44ab06a9ea700ec8e5,
      type: 3}
    SourcePrefabToOverride: {fileID: 0}
    SourceHashToOverride: 0
    OverridingTargetPrefab: {fileID: 0}
  - Override: 0
    Prefab: {fileID: 4208268872363287176, guid: 193d528df22b4884f8e11477147b2b1f,
      type: 3}
    SourcePrefabToOverride: {fileID: 0}
    SourceHashToOverride: 0
    OverridingTargetPrefab: {fileID: 0}
  - Override: 0
    Prefab: {fileID: 7880775074672578084, guid: bde56713086250c4c9ed3ee004bb167a,
      type: 3}
    SourcePrefabToOverride: {fileID: 0}
    SourceHashToOverride: 0
    OverridingTargetPrefab: {fileID: 0}
  - Override: 0
    Prefab: {fileID: 4803264335828392355, guid: 6ef925e5d7179fe4ca90f0c8e687923b,
      type: 3}
    SourcePrefabToOverride: {fileID: 0}
    SourceHashToOverride: 0
    OverridingTargetPrefab: {fileID: 0}
  - Override: 0
    Prefab: {fileID: 8098943418436733538, guid: f4d3e4d7df466554396e5bc803108aa3,
      type: 3}
    SourcePrefabToOverride: {fileID: 0}
    SourceHashToOverride: 0
    OverridingTargetPrefab: {fileID: 0}
  - Override: 0
    Prefab: {fileID: 3364773457477293067, guid: a05b5e4ea7c510f47abea373ea4aceb4,
      type: 3}
    SourcePrefabToOverride: {fileID: 0}
    SourceHashToOverride: 0
    OverridingTargetPrefab: {fileID: 0}
  - Override: 0
    Prefab: {fileID: 512020293449675327, guid: 6d90bd8a03d827a43a0cf89a7ace5e97, type: 3}
    SourcePrefabToOverride: {fileID: 0}
    SourceHashToOverride: 0
    OverridingTargetPrefab: {fileID: 0}
  - Override: 0
    Prefab: {fileID: 4690059050598384780, guid: 0b535d5abe89a634297614b933c217ba,
      type: 3}
    SourcePrefabToOverride: {fileID: 0}
    SourceHashToOverride: 0
    OverridingTargetPrefab: {fileID: 0}
