%YAML 1.1
%TAG !u! tag:unity3d.com,2011:
--- !u!1001 &7361320722951243704
PrefabInstance:
  m_ObjectHideFlags: 0
  serializedVersion: 2
  m_Modification:
    serializedVersion: 3
    m_TransformParent: {fileID: 0}
    m_Modifications:
    - target: {fileID: -8679921383154817045, guid: a6f82888bb504654ab4a7d8f96952286,
        type: 3}
      propertyPath: m_RootOrder
      value: 0
      objectReference: {fileID: 0}
    - target: {fileID: -8679921383154817045, guid: a6f82888bb504654ab4a7d8f96952286,
        type: 3}
      propertyPath: m_LocalPosition.x
      value: 0.04709169
      objectReference: {fileID: 0}
    - target: {fileID: -8679921383154817045, guid: a6f82888bb504654ab4a7d8f96952286,
        type: 3}
      propertyPath: m_LocalPosition.y
      value: -0.00782899
      objectReference: {fileID: 0}
    - target: {fileID: -8679921383154817045, guid: a6f82888bb504654ab4a7d8f96952286,
        type: 3}
      propertyPath: m_LocalPosition.z
      value: -0.044633906
      objectReference: {fileID: 0}
    - target: {fileID: -8679921383154817045, guid: a6f82888bb504654ab4a7d8f96952286,
        type: 3}
      propertyPath: m_LocalRotation.w
      value: 1
      objectReference: {fileID: 0}
    - target: {fileID: -8679921383154817045, guid: a6f82888bb504654ab4a7d8f96952286,
        type: 3}
      propertyPath: m_LocalRotation.x
      value: 0
      objectReference: {fileID: 0}
    - target: {fileID: -8679921383154817045, guid: a6f82888bb504654ab4a7d8f96952286,
        type: 3}
      propertyPath: m_LocalRotation.y
      value: -0
      objectReference: {fileID: 0}
    - target: {fileID: -8679921383154817045, guid: a6f82888bb504654ab4a7d8f96952286,
        type: 3}
      propertyPath: m_LocalRotation.z
      value: -0
      objectReference: {fileID: 0}
    - target: {fileID: -8679921383154817045, guid: a6f82888bb504654ab4a7d8f96952286,
        type: 3}
      propertyPath: m_LocalEulerAnglesHint.x
      value: 0
      objectReference: {fileID: 0}
    - target: {fileID: -8679921383154817045, guid: a6f82888bb504654ab4a7d8f96952286,
        type: 3}
      propertyPath: m_LocalEulerAnglesHint.y
      value: 0
      objectReference: {fileID: 0}
    - target: {fileID: -8679921383154817045, guid: a6f82888bb504654ab4a7d8f96952286,
        type: 3}
      propertyPath: m_LocalEulerAnglesHint.z
      value: 0
      objectReference: {fileID: 0}
    - target: {fileID: -7511558181221131132, guid: a6f82888bb504654ab4a7d8f96952286,
        type: 3}
      propertyPath: m_ScaleInLightmap
      value: 0.1
      objectReference: {fileID: 0}
    - target: {fileID: -7511558181221131132, guid: a6f82888bb504654ab4a7d8f96952286,
        type: 3}
      propertyPath: 'm_Materials.Array.data[0]'
      value: 
      objectReference: {fileID: 2100000, guid: 9ad3d533612e9404fa35e1d900ab70a9, type: 2}
    - target: {fileID: 919132149155446097, guid: a6f82888bb504654ab4a7d8f96952286,
        type: 3}
      propertyPath: m_Name
      value: SM_Env_Rock_Pile_03
      objectReference: {fileID: 0}
    - target: {fileID: 919132149155446097, guid: a6f82888bb504654ab4a7d8f96952286,
        type: 3}
      propertyPath: m_StaticEditorFlags
      value: 4294967295
      objectReference: {fileID: 0}
    m_RemovedComponents: []
    m_RemovedGameObjects: []
    m_AddedGameObjects: []
    m_AddedComponents:
    - targetCorrespondingSourceObject: {fileID: 919132149155446097, guid: a6f82888bb504654ab4a7d8f96952286,
        type: 3}
      insertIndex: -1
      addedObject: {fileID: -5134336843320566510}
    - targetCorrespondingSourceObject: {fileID: 919132149155446097, guid: a6f82888bb504654ab4a7d8f96952286,
        type: 3}
      insertIndex: -1
      addedObject: {fileID: -2555837855034237300}
  m_SourcePrefab: {fileID: 100100000, guid: a6f82888bb504654ab4a7d8f96952286, type: 3}
--- !u!1 &7703904021432908521 stripped
GameObject:
  m_CorrespondingSourceObject: {fileID: 919132149155446097, guid: a6f82888bb504654ab4a7d8f96952286,
    type: 3}
  m_PrefabInstance: {fileID: 7361320722951243704}
  m_PrefabAsset: {fileID: 0}
--- !u!64 &-5134336843320566510
MeshCollider:
  m_ObjectHideFlags: 0
  m_CorrespondingSourceObject: {fileID: 0}
  m_PrefabInstance: {fileID: 0}
  m_PrefabAsset: {fileID: 0}
  m_GameObject: {fileID: 7703904021432908521}
  m_Material: {fileID: 0}
  m_IncludeLayers:
    serializedVersion: 2
    m_Bits: 0
  m_ExcludeLayers:
    serializedVersion: 2
    m_Bits: 0
  m_LayerOverridePriority: 0
  m_IsTrigger: 0
  m_ProvidesContacts: 0
  m_Enabled: 1
  serializedVersion: 5
  m_Convex: 1
  m_CookingOptions: 30
  m_Mesh: {fileID: -3564472764269632785, guid: a6f82888bb504654ab4a7d8f96952286, type: 3}
--- !u!205 &-2555837855034237300
LODGroup:
  m_ObjectHideFlags: 0
  m_CorrespondingSourceObject: {fileID: 0}
  m_PrefabInstance: {fileID: 0}
  m_PrefabAsset: {fileID: 0}
  m_GameObject: {fileID: 7703904021432908521}
  serializedVersion: 2
  m_LocalReferencePoint: {x: 0, y: 0, z: 0}
  m_Size: 1
  m_FadeMode: 0
  m_AnimateCrossFading: 0
  m_LastLODIsBillboard: 0
  m_LODs:
  - screenRelativeHeight: 0.005
    fadeTransitionWidth: 0
    renderers: []
  m_Enabled: 1
