%YAML 1.1
%TAG !u! tag:unity3d.com,2011:
--- !u!1001 &2073326135135719745
PrefabInstance:
  m_ObjectHideFlags: 0
  serializedVersion: 2
  m_Modification:
    serializedVersion: 3
    m_TransformParent: {fileID: 0}
    m_Modifications:
    - target: {fileID: -8679921383154817045, guid: 13c2c7a407ffd4f478572f876e3c8382,
        type: 3}
      propertyPath: m_RootOrder
      value: 0
      objectReference: {fileID: 0}
    - target: {fileID: -8679921383154817045, guid: 13c2c7a407ffd4f478572f876e3c8382,
        type: 3}
      propertyPath: m_LocalPosition.x
      value: 0.04709169
      objectReference: {fileID: 0}
    - target: {fileID: -8679921383154817045, guid: 13c2c7a407ffd4f478572f876e3c8382,
        type: 3}
      propertyPath: m_LocalPosition.y
      value: -0.00782899
      objectReference: {fileID: 0}
    - target: {fileID: -8679921383154817045, guid: 13c2c7a407ffd4f478572f876e3c8382,
        type: 3}
      propertyPath: m_LocalPosition.z
      value: -0.044633906
      objectReference: {fileID: 0}
    - target: {fileID: -8679921383154817045, guid: 13c2c7a407ffd4f478572f876e3c8382,
        type: 3}
      propertyPath: m_LocalRotation.w
      value: 1
      objectReference: {fileID: 0}
    - target: {fileID: -8679921383154817045, guid: 13c2c7a407ffd4f478572f876e3c8382,
        type: 3}
      propertyPath: m_LocalRotation.x
      value: 0
      objectReference: {fileID: 0}
    - target: {fileID: -8679921383154817045, guid: 13c2c7a407ffd4f478572f876e3c8382,
        type: 3}
      propertyPath: m_LocalRotation.y
      value: -0
      objectReference: {fileID: 0}
    - target: {fileID: -8679921383154817045, guid: 13c2c7a407ffd4f478572f876e3c8382,
        type: 3}
      propertyPath: m_LocalRotation.z
      value: -0
      objectReference: {fileID: 0}
    - target: {fileID: -8679921383154817045, guid: 13c2c7a407ffd4f478572f876e3c8382,
        type: 3}
      propertyPath: m_LocalEulerAnglesHint.x
      value: 0
      objectReference: {fileID: 0}
    - target: {fileID: -8679921383154817045, guid: 13c2c7a407ffd4f478572f876e3c8382,
        type: 3}
      propertyPath: m_LocalEulerAnglesHint.y
      value: 0
      objectReference: {fileID: 0}
    - target: {fileID: -8679921383154817045, guid: 13c2c7a407ffd4f478572f876e3c8382,
        type: 3}
      propertyPath: m_LocalEulerAnglesHint.z
      value: 0
      objectReference: {fileID: 0}
    - target: {fileID: -7511558181221131132, guid: 13c2c7a407ffd4f478572f876e3c8382,
        type: 3}
      propertyPath: m_ScaleInLightmap
      value: 0.1
      objectReference: {fileID: 0}
    - target: {fileID: -7511558181221131132, guid: 13c2c7a407ffd4f478572f876e3c8382,
        type: 3}
      propertyPath: 'm_Materials.Array.data[0]'
      value: 
      objectReference: {fileID: 2100000, guid: 9ad3d533612e9404fa35e1d900ab70a9, type: 2}
    - target: {fileID: 919132149155446097, guid: 13c2c7a407ffd4f478572f876e3c8382,
        type: 3}
      propertyPath: m_Name
      value: SM_Env_Rock_Cliff_01
      objectReference: {fileID: 0}
    - target: {fileID: 919132149155446097, guid: 13c2c7a407ffd4f478572f876e3c8382,
        type: 3}
      propertyPath: m_StaticEditorFlags
      value: 4294967295
      objectReference: {fileID: 0}
    m_RemovedComponents: []
    m_RemovedGameObjects: []
    m_AddedGameObjects: []
    m_AddedComponents:
    - targetCorrespondingSourceObject: {fileID: 919132149155446097, guid: 13c2c7a407ffd4f478572f876e3c8382,
        type: 3}
      insertIndex: -1
      addedObject: {fileID: -8819304285427793746}
    - targetCorrespondingSourceObject: {fileID: 919132149155446097, guid: 13c2c7a407ffd4f478572f876e3c8382,
        type: 3}
      insertIndex: -1
      addedObject: {fileID: 6589153871474880547}
  m_SourcePrefab: {fileID: 100100000, guid: 13c2c7a407ffd4f478572f876e3c8382, type: 3}
--- !u!1 &1154195784497982480 stripped
GameObject:
  m_CorrespondingSourceObject: {fileID: 919132149155446097, guid: 13c2c7a407ffd4f478572f876e3c8382,
    type: 3}
  m_PrefabInstance: {fileID: 2073326135135719745}
  m_PrefabAsset: {fileID: 0}
--- !u!64 &-8819304285427793746
MeshCollider:
  m_ObjectHideFlags: 0
  m_CorrespondingSourceObject: {fileID: 0}
  m_PrefabInstance: {fileID: 0}
  m_PrefabAsset: {fileID: 0}
  m_GameObject: {fileID: 1154195784497982480}
  m_Material: {fileID: 0}
  m_IncludeLayers:
    serializedVersion: 2
    m_Bits: 0
  m_ExcludeLayers:
    serializedVersion: 2
    m_Bits: 0
  m_LayerOverridePriority: 0
  m_IsTrigger: 0
  m_ProvidesContacts: 0
  m_Enabled: 1
  serializedVersion: 5
  m_Convex: 1
  m_CookingOptions: 30
  m_Mesh: {fileID: -119290504776135988, guid: 13c2c7a407ffd4f478572f876e3c8382, type: 3}
--- !u!205 &6589153871474880547
LODGroup:
  m_ObjectHideFlags: 0
  m_CorrespondingSourceObject: {fileID: 0}
  m_PrefabInstance: {fileID: 0}
  m_PrefabAsset: {fileID: 0}
  m_GameObject: {fileID: 1154195784497982480}
  serializedVersion: 2
  m_LocalReferencePoint: {x: 0, y: 0, z: 0}
  m_Size: 1
  m_FadeMode: 0
  m_AnimateCrossFading: 0
  m_LastLODIsBillboard: 0
  m_LODs:
  - screenRelativeHeight: 0.005
    fadeTransitionWidth: 0
    renderers: []
  m_Enabled: 1
