%YAML 1.1
%TAG !u! tag:unity3d.com,2011:
--- !u!114 &11400000
MonoBehaviour:
  m_ObjectHideFlags: 0
  m_CorrespondingSourceObject: {fileID: 0}
  m_PrefabInstance: {fileID: 0}
  m_PrefabAsset: {fileID: 0}
  m_GameObject: {fileID: 0}
  m_Enabled: 1
  m_EditorHideFlags: 0
  m_Script: {fileID: 11500000, guid: 77dee27d70c5da5478ac4fbd771b4410, type: 3}
  m_Name: Default Brush Collection
  m_EditorClassIdentifier: 
  _brushes:
  - brushObject: {fileID: 3352217956893531606, guid: ac0400fbb3461084b8a772038833d549,
      type: 3}
    usePrefabs: 1
    allowIntercollision: 0
    alignToSurface: 1
    randomizeXRotation: 0
    randomizeYRotation: 1
    randomizeZRotation: 0
    parentContainer: {fileID: 0}
    density: 0.39
    brushSize: 0.2
    minScale: 0.5
    maxScale: 1.5
    offsetFromPivot: {x: 0, y: 0, z: 0}
    rotOffsetFromPivot: {x: 0, y: 0, z: 0}
    minSlope: 0
    maxSlope: 360
    layerFilter:
      serializedVersion: 2
      m_Bits: 4294967295
    isTagFilteringEnabled: 0
    tagFilter: 
  primarySelectedBrush:
    brushObject: {fileID: 3352217956893531606, guid: ac0400fbb3461084b8a772038833d549,
      type: 3}
    usePrefabs: 1
    allowIntercollision: 0
    alignToSurface: 1
    randomizeXRotation: 0
    randomizeYRotation: 1
    randomizeZRotation: 0
    parentContainer: {fileID: 0}
    density: 0.39
    brushSize: 0.2
    minScale: 0.5
    maxScale: 1.5
    offsetFromPivot: {x: 0, y: 0, z: 0}
    rotOffsetFromPivot: {x: 0, y: 0, z: 0}
    minSlope: 0
    maxSlope: 360
    layerFilter:
      serializedVersion: 2
      m_Bits: 4294967295
    isTagFilteringEnabled: 0
    tagFilter: 
  selectedBrushes:
  - brushObject: {fileID: 3352217956893531606, guid: ac0400fbb3461084b8a772038833d549,
      type: 3}
    usePrefabs: 1
    allowIntercollision: 0
    alignToSurface: 1
    randomizeXRotation: 0
    randomizeYRotation: 1
    randomizeZRotation: 0
    parentContainer: {fileID: 0}
    density: 0.39
    brushSize: 0.2
    minScale: 0.5
    maxScale: 1.5
    offsetFromPivot: {x: 0, y: 0, z: 0}
    rotOffsetFromPivot: {x: 0, y: 0, z: 0}
    minSlope: 0
    maxSlope: 360
    layerFilter:
      serializedVersion: 2
      m_Bits: 4294967295
    isTagFilteringEnabled: 0
    tagFilter: 
